{
	"name": "servicebus",
	"main": "index.d.ts",
	"author": "Mumba Pty Ltd <www.mumba.cloud>",
	"description": "Type definitions for the Service Bus family of packages by mateodelnorte.",
	"dependencies": {
	},
	"devDependencies": {
	},
	"globalDependencies": {
		"node": "registry:dt/node#6.0.0+20160807145350"
	}
}
